{
    "items": [
        {
            "th": "test 1",
            "type": "number"
        },
        {
            "th": "test 1",
            "type": "number"
        },
        {
            "th": "test 1",
            "type": "number"
        }
    ],
    "body":[
        {
            "value":[
                {
                    "text":"test 1"
                },
                {
                    "text":"test 2"
                },
                {
                    "text":"test 3"
                }
            ],
            "id":1
        },
        {
            "value":[
                {
                    "text":"test 1"
                },
                {
                    "text":"test 2"
                },
                {
                    "text":"test 3"
                }
            ],
            "id":2
        },
        {
            "value":[
                {
                    "text":"test 1"
                },
                {
                    "text":"test 2"
                },
                {
                    "text":"test 3"
                }
            ],
            "id":3
        }
    ],
    "deletePermission":false,
    "editPersmisson":true,
    "createPermisson":true
}